<svg xmlns="http://www.w3.org/2000/svg" width="121.637" height="95.528" viewBox="0 0 121.637 95.528">
  <g id="logo-vertical-dark" transform="translate(-110.56 -55.59)">
    <path id="Caminho_1" data-name="Caminho 1" d="M392.153,267.841l-11.343,12.267a1.812,1.812,0,1,0,2.656,2.466l11.343-12.267a1.812,1.812,0,1,0-2.656-2.466Z" transform="translate(-203.248 -159.478)" fill="#212121"/>
    <path id="Caminho_2" data-name="Caminho 2" d="M335.2,267.733a1.8,1.8,0,0,0-2.555.1L321.3,280.1a1.812,1.812,0,0,0,2.656,2.466L335.3,270.3a1.8,1.8,0,0,0-.1-2.564Z" transform="translate(-158.412 -159.469)" fill="#212121"/>
    <path id="Caminho_3" data-name="Caminho 3" d="M275.687,267.733a1.8,1.8,0,0,0-2.555.1L261.79,280.1a1.811,1.811,0,0,0,2.653,2.466L275.786,270.3a1.8,1.8,0,0,0-.1-2.564Z" transform="translate(-113.575 -159.469)" fill="#212121"/>
    <path id="Caminho_4" data-name="Caminho 4" d="M265.059,92.569a9.8,9.8,0,0,0-14.689-11.3,14,14,0,0,0-8.63-10.2l3.913-3.963a1.662,1.662,0,0,0-2.362-2.335l-4.438,4.485a1.479,1.479,0,0,0-.16-.168,20.693,20.693,0,0,0-10.443-4.663V57.4a1.807,1.807,0,1,0-3.615,0v6.828a20.74,20.74,0,0,0-12.23,4.468l-5.412-5.425a1.81,1.81,0,0,0-2.56,2.557l5.338,5.336A20.713,20.713,0,0,0,204.7,82.075h-7.03a1.81,1.81,0,0,0,0,3.617h6.83a20.732,20.732,0,0,0,4.863,12.721,1.643,1.643,0,0,0,.367.316l-3.519,3.566a1.659,1.659,0,0,0,1.181,2.828H263.23a6.411,6.411,0,0,0,1.83-12.551Zm-1.83,9.232H211.372L239.1,73.731a10.6,10.6,0,0,1,8.226,10.287c0,.264-.012.547-.039.87a1.662,1.662,0,0,0,3.05,1.038,6.473,6.473,0,1,1,10.783,7.151,1.659,1.659,0,0,0,1.627,2.579,3.043,3.043,0,0,1,.481-.042,3.087,3.087,0,0,1,0,6.164Z" transform="translate(-64.32 0)" fill="#212121"/>
    <path id="Caminho_5" data-name="Caminho 5" d="M119.254,387.564a4.5,4.5,0,0,1,2.015,1.674,5.121,5.121,0,0,1,0,5.178,4.483,4.483,0,0,1-2.015,1.684,7.555,7.555,0,0,1-3.087.582H113.09v3.945h-2.53V386.992h5.607a7.553,7.553,0,0,1,3.087.572Zm-.7,6.271a2.774,2.774,0,0,0,0-4.012,3.875,3.875,0,0,0-2.51-.7H113.09v5.425h2.959A3.917,3.917,0,0,0,118.559,393.835Z" transform="translate(0 -249.683)" fill="#212121"/>
    <path id="Caminho_6" data-name="Caminho 6" d="M199.809,400.613l-2.784-4c-.118,0-.293.02-.528.02h-3.075V400.6H190.89V386.994H196.5a7.545,7.545,0,0,1,3.087.584,4.488,4.488,0,0,1,2.017,1.674,4.685,4.685,0,0,1,.7,2.589,4.631,4.631,0,0,1-.74,2.648,4.46,4.46,0,0,1-2.153,1.655l3.136,4.48Zm-.915-10.788a3.886,3.886,0,0,0-2.513-.7h-2.959v5.425h2.959a3.851,3.851,0,0,0,2.513-.71,2.481,2.481,0,0,0,.856-2.017A2.427,2.427,0,0,0,198.894,389.825Z" transform="translate(-60.522 -249.685)" fill="#212121"/>
    <path id="Caminho_7" data-name="Caminho 7" d="M283.023,398.5v2.123H272.8V387h9.949v2.123h-7.42v3.543h6.584v2.084H275.33v3.758Z" transform="translate(-122.235 -249.691)" fill="#212121"/>
    <path id="Caminho_8" data-name="Caminho 8" d="M347.869,399.271a6.658,6.658,0,0,1-2.609-2.5,7.311,7.311,0,0,1,0-7.205,6.747,6.747,0,0,1,2.619-2.5,7.669,7.669,0,0,1,3.728-.9,7.778,7.778,0,0,1,3.058.584A6.239,6.239,0,0,1,357,388.436l-1.637,1.539a4.766,4.766,0,0,0-3.639-1.6,5.1,5.1,0,0,0-2.513.614,4.414,4.414,0,0,0-1.726,1.7,5.215,5.215,0,0,0,0,4.946,4.414,4.414,0,0,0,1.726,1.7,5.124,5.124,0,0,0,2.522.609,4.739,4.739,0,0,0,3.64-1.615l1.637,1.558a6.236,6.236,0,0,1-2.347,1.694,7.843,7.843,0,0,1-3.067.582A7.668,7.668,0,0,1,347.869,399.271Z" transform="translate(-176.113 -249.056)" fill="#212121"/>
    <path id="Caminho_9" data-name="Caminho 9" d="M429.35,387h2.53v13.631h-2.53Z" transform="translate(-240.183 -249.691)" fill="#212121"/>
    <path id="Caminho_10" data-name="Caminho 10" d="M487.014,387.564a4.48,4.48,0,0,1,2.015,1.674,5.107,5.107,0,0,1,0,5.178,4.468,4.468,0,0,1-2.015,1.684,7.545,7.545,0,0,1-3.087.582h-3.075v3.945H478.32V386.992h5.607A7.546,7.546,0,0,1,487.014,387.564Zm-.69,6.271a2.779,2.779,0,0,0,0-4.012,3.886,3.886,0,0,0-2.513-.7h-2.959v5.425h2.959a3.928,3.928,0,0,0,2.513-.71Z" transform="translate(-277.078 -249.683)" fill="#212121"/>
    <path id="Caminho_11" data-name="Caminho 11" d="M558.126,395.808v4.811h-2.52v-4.771L550.24,387h2.712l3.992,6.64,4.024-6.64h2.493Z" transform="translate(-331.264 -249.691)" fill="#212121"/>
  </g>
</svg>
