<svg xmlns="http://www.w3.org/2000/svg" width="238.859" height="50.086" viewBox="0 0 238.859 50.086">
  <g id="logo-horiz" transform="translate(-36.06 -29.79)">
    <path id="Caminho_1" data-name="Caminho 1" d="M145.516,145.691l-8.352,9.027a1.33,1.33,0,0,0,1.952,1.806l8.352-9.01a1.331,1.331,0,0,0-1.952-1.809Z" transform="translate(-67.258 -77.077)" fill="#5ec7d0"/>
    <path id="Caminho_2" data-name="Caminho 2" d="M114.882,145.6a1.33,1.33,0,0,0-1.879.07l-8.352,9.027a1.331,1.331,0,1,0,1.956,1.806l8.348-9.01a1.33,1.33,0,0,0-.073-1.893Z" transform="translate(-45.542 -77.053)" fill="#5ec7d0"/>
    <path id="Caminho_3" data-name="Caminho 3" d="M82.422,145.6a1.33,1.33,0,0,0-1.879.07l-8.352,9.027a1.331,1.331,0,0,0,1.956,1.806l8.348-9.01a1.33,1.33,0,0,0-.073-1.893Z" transform="translate(-23.878 -77.053)" fill="#5ec7d0"/>
    <path id="Caminho_4" data-name="Caminho 4" d="M86.962,57a7.209,7.209,0,0,0-10.806-8.315A10.311,10.311,0,0,0,69.8,41.168l2.88-2.917a1.222,1.222,0,1,0-1.74-1.716l-3.263,3.3c-.037-.04-.073-.083-.116-.123a15.233,15.233,0,0,0-7.68-3.432V31.12a1.33,1.33,0,1,0-2.661,0v5.026a15.237,15.237,0,0,0-8.98,3.286l-3.991-3.991A1.337,1.337,0,1,0,42.36,37.33l3.925,3.928a15.22,15.22,0,0,0-3.725,8.016H37.39a1.33,1.33,0,1,0,0,2.661h5.022a15.24,15.24,0,0,0,3.579,9.359,1.178,1.178,0,0,0,.269.233L43.67,64.151a1.221,1.221,0,0,0,.871,2.079H85.618A4.713,4.713,0,0,0,86.948,57Zm-1.33,6.788H47.465l20.4-20.648a7.8,7.8,0,0,1,6.05,7.57,5.483,5.483,0,0,1-.027.639,1.221,1.221,0,0,0,2.242.765,4.763,4.763,0,1,1,7.933,5.268,1.224,1.224,0,0,0,1.2,1.9,2.111,2.111,0,0,1,.356-.033,2.272,2.272,0,0,1,0,4.54Z" transform="translate(0 0)" fill="#f79357"/>
    <path id="Caminho_5" data-name="Caminho 5" d="M272.638,84.073a6.024,6.024,0,0,1,2.717,2.258,6.882,6.882,0,0,1,0,6.985,6.007,6.007,0,0,1-2.717,2.272,10.178,10.178,0,0,1-4.164.788h-4.148V101.7H260.91V83.285h7.563a10.178,10.178,0,0,1,4.164.788Zm-.931,8.455a3.745,3.745,0,0,0,0-5.408,5.282,5.282,0,0,0-3.389-.938h-3.991V93.5h3.991A5.333,5.333,0,0,0,271.706,92.528Z" transform="translate(-150.064 -35.7)" fill="#212121"/>
    <path id="Caminho_6" data-name="Caminho 6" d="M353.277,101.668l-3.755-5.382c-.156.017-.392.023-.708.023h-4.151v5.358H341.25V83.285h7.567a10.188,10.188,0,0,1,4.164.788,6.04,6.04,0,0,1,2.717,2.258,6.319,6.319,0,0,1,.945,3.492,6.219,6.219,0,0,1-1,3.572,6.01,6.01,0,0,1-2.9,2.232l4.227,6.04ZM352.043,87.12a5.282,5.282,0,0,0-3.389-.938h-3.991V93.5h3.991a5.2,5.2,0,0,0,3.389-.958,3.326,3.326,0,0,0,1.157-2.717A3.29,3.29,0,0,0,352.043,87.12Z" transform="translate(-203.683 -35.701)" fill="#212121"/>
    <path id="Caminho_7" data-name="Caminho 7" d="M436.94,98.826v2.86H423.15V83.29h13.424v2.86H426.566v4.783h8.877v2.811h-8.877v5.082Z" transform="translate(-258.343 -35.706)" fill="#212121"/>
    <path id="Caminho_8" data-name="Caminho 8" d="M499.46,100.185a8.98,8.98,0,0,1-3.519-3.376,9.855,9.855,0,0,1,0-9.715,9.1,9.1,0,0,1,3.532-3.376,10.347,10.347,0,0,1,5.046-1.221,10.474,10.474,0,0,1,4.121.788,8.345,8.345,0,0,1,3.153,2.285l-2.205,2.082a6.443,6.443,0,0,0-4.913-2.152,6.885,6.885,0,0,0-3.389.822,5.953,5.953,0,0,0-2.328,2.3,7.051,7.051,0,0,0,0,6.652,5.953,5.953,0,0,0,2.328,2.3,6.885,6.885,0,0,0,3.389.828,6.4,6.4,0,0,0,4.913-2.179l2.205,2.1a8.356,8.356,0,0,1-3.166,2.288,10.643,10.643,0,0,1-4.134.785A10.354,10.354,0,0,1,499.46,100.185Z" transform="translate(-306.068 -35.176)" fill="#212121"/>
    <path id="Caminho_9" data-name="Caminho 9" d="M579.7,83.29h3.426v18.383H579.7Z" transform="translate(-362.823 -35.706)" fill="#212121"/>
    <path id="Caminho_10" data-name="Caminho 10" d="M640.4,84.073a6.034,6.034,0,0,1,2.721,2.258,6.905,6.905,0,0,1,0,6.985,6.017,6.017,0,0,1-2.721,2.272,10.161,10.161,0,0,1-4.161.788h-4.151V101.7H628.67V83.285h7.567a10.161,10.161,0,0,1,4.161.788Zm-.931,8.455a3.737,3.737,0,0,0,0-5.408,5.281,5.281,0,0,0-3.389-.938h-3.991V93.5h3.991A5.324,5.324,0,0,0,639.466,92.528Z" transform="translate(-395.506 -35.7)" fill="#212121"/>
    <path id="Caminho_11" data-name="Caminho 11" d="M711.227,95.187v6.486h-3.412V95.24L700.59,83.29h3.659l5.385,8.954,5.428-8.954h3.363Z" transform="translate(-443.505 -35.706)" fill="#212121"/>
  </g>
</svg>
