<svg xmlns="http://www.w3.org/2000/svg" width="212" height="166.495" viewBox="0 0 212 166.495">
  <g id="logo-vertical" transform="translate(-110.56 -55.59)">
    <path id="Caminho_1" data-name="Caminho 1" d="M400.939,268.271l-19.769,21.38a3.158,3.158,0,0,0,4.629,4.3l19.769-21.38a3.158,3.158,0,0,0-4.628-4.3Z" transform="translate(-153.832 -120.704)" fill="#5ec7d0"/>
    <path id="Caminho_2" data-name="Caminho 2" d="M345.882,268.092a3.142,3.142,0,0,0-4.452.172L321.66,289.645a3.158,3.158,0,0,0,4.628,4.3l19.769-21.381a3.146,3.146,0,0,0-.176-4.47Z" transform="translate(-119.897 -120.697)" fill="#5ec7d0"/>
    <path id="Caminho_3" data-name="Caminho 3" d="M286.371,268.092a3.142,3.142,0,0,0-4.452.172L262.15,289.645a3.156,3.156,0,1,0,4.624,4.3l19.769-21.381a3.142,3.142,0,0,0-.172-4.47Z" transform="translate(-85.961 -120.697)" fill="#5ec7d0"/>
    <path id="Caminho_4" data-name="Caminho 4" d="M316.414,120.041a17.083,17.083,0,0,0-25.6-19.7,24.4,24.4,0,0,0-15.042-17.779l6.82-6.906a2.9,2.9,0,0,0-4.117-4.07L270.739,79.4a2.573,2.573,0,0,0-.279-.292,36.065,36.065,0,0,0-18.2-8.127V58.74a3.15,3.15,0,1,0-6.3,0v11.9a36.147,36.147,0,0,0-21.316,7.787l-9.433-9.455a3.154,3.154,0,0,0-4.461,4.457l9.3,9.3a36.1,36.1,0,0,0-8.832,19.021H198.969a3.154,3.154,0,0,0,0,6.3h11.9a36.134,36.134,0,0,0,8.475,22.171,2.862,2.862,0,0,0,.64.55l-6.133,6.214a2.892,2.892,0,0,0,2.059,4.929h97.31a11.174,11.174,0,0,0,3.189-21.875Zm-3.189,16.09H222.842l48.326-48.924a18.48,18.48,0,0,1,14.337,17.93c0,.46-.022.954-.069,1.517a2.9,2.9,0,0,0,5.316,1.809,11.281,11.281,0,1,1,18.793,12.463,2.892,2.892,0,0,0,2.836,4.5,5.3,5.3,0,0,1,.838-.073,5.381,5.381,0,0,1,0,10.744Z" transform="translate(-48.682)" fill="#f79357"/>
    <path id="Caminho_5" data-name="Caminho 5" d="M125.713,387.991a7.835,7.835,0,0,1,3.511,2.918,8.926,8.926,0,0,1,0,9.025,7.813,7.813,0,0,1-3.511,2.935,13.168,13.168,0,0,1-5.381,1.014h-5.363v6.876H110.56V386.994h9.773a13.164,13.164,0,0,1,5.381,1ZM124.5,398.92a4.834,4.834,0,0,0,0-6.992,6.754,6.754,0,0,0-4.375-1.225h-5.157v9.455h5.157A6.827,6.827,0,0,0,124.5,398.92Z" transform="translate(0 -188.978)" fill="#212121"/>
    <path id="Caminho_6" data-name="Caminho 6" d="M206.434,410.731l-4.852-6.975c-.206,0-.511.034-.92.034H195.3v6.923H190.89V387h9.773a13.151,13.151,0,0,1,5.381,1.019,7.822,7.822,0,0,1,3.515,2.918,8.165,8.165,0,0,1,1.221,4.512,8.071,8.071,0,0,1-1.289,4.616,7.774,7.774,0,0,1-3.752,2.884l5.467,7.809Zm-1.594-18.8a6.773,6.773,0,0,0-4.379-1.225H195.3v9.455h5.157a6.712,6.712,0,0,0,4.379-1.238,4.323,4.323,0,0,0,1.491-3.515A4.229,4.229,0,0,0,204.84,391.929Z" transform="translate(-45.807 -188.979)" fill="#212121"/>
    <path id="Caminho_7" data-name="Caminho 7" d="M290.618,407.035v3.7H272.8V387h17.341v3.7H277.209v6.176h11.475v3.631H277.209v6.549Z" transform="translate(-92.516 -188.984)" fill="#212121"/>
    <path id="Caminho_8" data-name="Caminho 8" d="M350.512,409.013a11.6,11.6,0,0,1-4.547-4.358,12.742,12.742,0,0,1,0-12.558,11.758,11.758,0,0,1,4.564-4.362,13.366,13.366,0,0,1,6.5-1.577,13.555,13.555,0,0,1,5.329,1.019,10.872,10.872,0,0,1,4.074,2.952l-2.854,2.682a8.307,8.307,0,0,0-6.343-2.785,8.883,8.883,0,0,0-4.379,1.07,7.693,7.693,0,0,0-3.008,2.97,9.089,9.089,0,0,0,0,8.621,7.693,7.693,0,0,0,3.008,2.97,8.93,8.93,0,0,0,4.4,1.062,8.26,8.26,0,0,0,6.343-2.815l2.854,2.716a10.869,10.869,0,0,1-4.091,2.952,13.671,13.671,0,0,1-5.346,1.014A13.366,13.366,0,0,1,350.512,409.013Z" transform="translate(-133.294 -188.503)" fill="#212121"/>
    <path id="Caminho_9" data-name="Caminho 9" d="M429.35,387h4.409v23.757H429.35Z" transform="translate(-181.787 -188.984)" fill="#212121"/>
    <path id="Caminho_10" data-name="Caminho 10" d="M493.473,387.991a7.809,7.809,0,0,1,3.511,2.918,8.9,8.9,0,0,1,0,9.025,7.788,7.788,0,0,1-3.511,2.935,13.152,13.152,0,0,1-5.381,1.014h-5.359v6.876H478.32V386.994h9.773a13.15,13.15,0,0,1,5.381,1Zm-1.2,10.929a4.844,4.844,0,0,0,0-6.992,6.773,6.773,0,0,0-4.379-1.225h-5.157v9.455h5.157A6.846,6.846,0,0,0,492.27,398.92Z" transform="translate(-209.712 -188.977)" fill="#212121"/>
    <path id="Caminho_11" data-name="Caminho 11" d="M563.984,402.351v8.385h-4.392V402.42L550.24,387h4.727l6.958,11.573L568.939,387h4.345Z" transform="translate(-250.723 -188.984)" fill="#212121"/>
  </g>
</svg>
