{
    "PolicyObjectList": [
        {
            "ProductCode": "PRECP",
            "ProductVersion": "1.0",
            "ProposalDate": "2020-03-31",
            "EffectiveDate": "2020-03-31",
            "EffectiveTime": "2",
            "ExpiryDate": "2020-03-31",
            "ExpiryTime": "2",
            "PolicyCustomerList": [
                {
                    "IdType": "1",
                    "CustomerName": "vitor",
                    "Email": "vitorkortez@gmail.com",
                    "IsPolicyHolder": "Y",
                    "IsBeneficiary": "N"
                }
            ],
            "PolicyLobList": [
                {
                    "BeforeVatPremium": 23.39025,
                    "DuePremium": 23.99,
                    "PolicyRiskList": [
                        {
                            "Address": "Rua 25 de Março",
                            "BeforeVatPremium": 23.39025,
                            "DuePremium": 23.99,
                            "FormattedAddress": "Rua 25 de Março - Centro Histórico de São Paulo, São Paulo - SP, Brasil",
                            "InsuredCategory": 1,
                            "InsuredSegment": 1,
                            "Latitude": "-23.5436527",
                            "Longitude": "-46.6325142",
                            "PolicyCoverageList": [
                                {
                                    "AdjustedPremium": 24,
                                    "BeforeVatPremium": 23.39025,
                                    "DuePremium": 23.99,
                                    "ExcProb": 0.1,
                                    "PolicyStatus": 2,
                                    "ProductElementCode": "C101420",
                                    "ProductElementId": 371742192,
                                    "RainDepth": 0.05,
                                    "RainIntensity": "1",
                                    "SequenceNumber": 1,
                                    "SumInsured": 100,
                                    "Vat": 0.59975,
                                    "VersionSeq": 1
                                }
                            ],
                            "PolicyStatus": 2,
                            "ProductElementCode": "R10070",
                            "ProductElementId": 371742190,
                            "SequenceNumber": 1,
                            "State": "SP",
                            "Suburb": "Centro Histórico de São Paulo",
                            "SumInsured": 100,
                            "Vat": 0.59975,
                            "VersionSeq": 1,
                            "WeatherStationName1": "CENTRAL_PARK",
                            "WeatherStationName2": "JFK",
                            "WeatherStationName3": "JERSEY_CITY"
                        }
                    ],
                    "PolicyStatus": 2,
                    "ProductCode": "PRECP",
                    "ProductElementCode": "PRECP",
                    "ProductElementId": 371742182,
                    "ProductId": 371742181,
                    "ProductLobId": 371742182,
                    "SequenceNumber": 1,
                    "SumInsured": 100,
                    "TechProductCode": "PRECPROT",
                    "TechProductId": 371741728,
                    "Vat": 0.59975,
                    "VersionSeq": 1
                }
            ],
            "PolicyPaymentInfoList": [
                {
                    "ExpiryDate": "2020-03-31",
                    "InstallmentList": [
                        {
                            "BeforeVatPremium": 23.39025,
                            "BeforeVatPremiumLocal": 23.39025,
                            "Commission": 4.68,
                            "CommissionLocal": 4.68,
                            "DuePremium": 23.99,
                            "FeeSeq": 1,
                            "InstallmentAmount": 23.99,
                            "InstallmentAmountLocal": 23.99,
                            "InstallmentDate": "2020-03-31",
                            "InstallmentPeriodSeq": 1,
                            "PolicyStatus": 2,
                            "PremiumInterest": 0,
                            "PremiumInterestLocal": 0,
                            "SequenceNumber": 1,
                            "TaxInterest": 0,
                            "TaxInterestLocal": 0,
                            "TotalInterest": 0,
                            "TotalInterestLocal": 0,
                            "Vat": 0.59975,
                            "VatLocal": 0.59975,
                            "VersionSeq": 1
                        }
                    ],
                    "InstallmentPeriodCount": 1,
                    "InstallmentType": "1",
                    "IsInstallment": "N",
                    "PayModeCode": "30",
                    "PayRate": 1,
                    "PolicyStatus": 2,
                    "SequenceNumber": 1,
                    "VersionSeq": 1
                }
            ],
            "TotalPremium": 23.99,
            "DuePremium": 23.99,
            "BeneficiaryName": "Kevin",
            "BeneficiaryEmail": "vkevin@marketingmanager.com.br",
            "BeneficiaryMessage": "sdad",
            "BeneficiaryPersist": "Y",
            "BeneficiaryPayoutLast4": "6789",
            "BeneficiaryPayoutToken": "btok_1GOm7vCRFdxZv0iqmFVfa8KQ",
            "BeneficiaryPayoutPersist": "Y",
            "BeforeVatPremium": 23.39025,
            "BusinessCateCode": "1",
            "CommisionRate": 0.2,
            "Commission": 4.68,
            "ProductId": 371742181,
            "AgentCode": "precipy"
        }
    ],
    "PaymentInfo": {
        "paymentMethodId": "pm_1GOWkECRFdxZv0iqo1tvA3ws",
        "customerId": "cus_Gu9xmrBNujrAwl"
    }
}